IP = newp;
IL = newl;
IS = news;
ILL = newll;
Point(IP+0) = {501122.5, 118545.0670428021, 0};
Point(IP+1) = {501780.4840969049, 118411.5474, 0};
Line(IL+0) = {IP+0, IP+1};
Point(IP+2) = {555293.4804964986, 138275.07708, 0};
Point(IP+3) = {555515.5, 138376.3679213935, 0};
Line(IL+1) = {IP+2, IP+3};
Point(IP+4) = {560873.5, 140220.5177566461, 0};
Point(IP+5) = {560136.4238821876, 142028.17716, 0};
Point(IP+6) = {559304.0390537289, 142784.284704157, 0};
Point(IP+7) = {558673.2101687643, 143444.1783037757, 0};
Point(IP+8) = {557864.062149158, 143214.5454608901, 0};
Point(IP+9) = {557014.0757818765, 143647.8542871807, 0};
Point(IP+10) = {556586.5, 144204.9312683549, 0};
Point(IP+11) = {555506.0856160638, 144175.3863510866, 0};
Point(IP+12) = {555124.6673158377, 144745.3115723652, 0};
Point(IP+13) = {553646.7868300775, 145675.1895649777, 0};
Point(IP+14) = {553364.1343223737, 146447.702460832, 0};
Point(IP+15) = {552714.1447473938, 146450.990831065, 0};
Point(IP+16) = {551614.1623897353, 146612.4612370615, 0};
Point(IP+17) = {550074.1870890136, 147225.0176351137, 0};
Point(IP+18) = {549474.196712109, 147140.5199013445, 0};
Point(IP+19) = {547722.3823238004, 148024.8812667403, 0};
Point(IP+20) = {546626.1075197496, 148874.7697546119, 0};
Point(IP+21) = {545668.6764085051, 148634.8012403894, 0};
Point(IP+22) = {544894.2701684042, 148616.5302022895, 0};
Point(IP+23) = {543094.2990376905, 150004.8330457061, 0};
Point(IP+24) = {542074.3153969527, 150269.4287005083, 0};
Point(IP+25) = {541174.3298315959, 150552.6948095413, 0};
Point(IP+26) = {540324.3434643144, 150754.1765990272, 0};
Point(IP+27) = {539684.3537289494, 150785.9923647089, 0};
Point(IP+28) = {538979.5, 150652.1058295991, 0};
Point(IP+29) = {538133.5, 150941.6029107869, 0};
Point(IP+30) = {537428.5, 151011.9608120919, 0};
Point(IP+31) = {536966.5, 151104.7615913592, 0};
Point(IP+32) = {536672.5, 151387.1922095407, 0};
Point(IP+33) = {535766.5, 151531.5792806034, 0};
Point(IP+34) = {535034.5, 152196.0528917761, 0};
Point(IP+35) = {534068.5, 152120.1145495715, 0};
Point(IP+36) = {533582.237170111, 151694.43492, 0};
Point(IP+37) = {532961.5, 151494.8746087294, 0};
Point(IP+38) = {532523.5, 151044.3045751385, 0};
Point(IP+39) = {532229.5, 150991.0292517922, 0};
Point(IP+40) = {530990.5, 150970.9202329653, 0};
Point(IP+41) = {529682.5, 151858.5429247158, 0};
Point(IP+42) = {528584.5, 152007.2028427479, 0};
Point(IP+43) = {528177.3433386271, 151697.435, 0};
Point(IP+44) = {528053.8910977466, 151232.4226, 0};
Point(IP+45) = {527620.8431310116, 150743.40956, 0};
Point(IP+46) = {526916.2487385605, 150395.40028, 0};
Point(IP+47) = {526650.4889904758, 149978.38916, 0};
Point(IP+48) = {526450, 149372, 0};
Point(IP+49) = {525572.5, 149214.5461194572, 0};
Point(IP+50) = {525026.1393659337, 148658.35396, 0};
Point(IP+51) = {524847.9745393655, 147947.335, 0};
Point(IP+52) = {523985.5, 147322.5027387303, 0};
Point(IP+53) = {521834.5, 146824.4945161048, 0};
Point(IP+54) = {520385.5, 145788.9520908216, 0};
Point(IP+55) = {519551.5, 145929.3197411647, 0};
Point(IP+56) = {518813.5, 146491.581829083, 0};
Point(IP+57) = {516107.5, 146091.876485755, 0};
Point(IP+58) = {515627.1857800545, 145712.2754, 0};
Point(IP+59) = {515405.5, 145398.7673646124, 0};
Point(IP+60) = {515029.8254405963, 144821.25164, 0};
Point(IP+61) = {513984.848805264, 144101.23244, 0};
Point(IP+62) = {513874.6086768226, 143723.22236, 0};
Point(IP+63) = {513000.6891794573, 142625.19308, 0};
Point(IP+64) = {511798.5351166906, 141728.16916, 0};
Point(IP+65) = {511699.3319195482, 140930.14788, 0};
Point(IP+66) = {511082.424401485, 140018.12356, 0};
Point(IP+67) = {511071.6074337683, 139097.099, 0};
Point(IP+68) = {510500.5, 138391.0043475262, 0};
Point(IP+69) = {509408.5, 138584.327407205, 0};
Point(IP+70) = {508699.5923824501, 138167.0742, 0};
Point(IP+71) = {508086.7463084914, 137435.05468, 0};
Point(IP+72) = {507458.7634388954, 136739.03612, 0};
Point(IP+73) = {507279.0360128253, 136259.02332, 0};
Point(IP+74) = {506291.1423235836, 135193.99492, 0};
Point(IP+75) = {505360.6703110946, 133705.95524, 0};
Point(IP+76) = {505223.5, 132711.2480210757, 0};
Point(IP+77) = {504877.3732907685, 131692.90156, 0};
Point(IP+78) = {504421.1488650655, 130504.86988, 0};
Point(IP+79) = {503756.8943403836, 129763.85012, 0};
Point(IP+80) = {502933.1895151956, 128377.81316, 0};
Point(IP+81) = {502407.651092607, 127876.7998, 0};
Point(IP+82) = {502417.9527162563, 127156.7806, 0};
Point(IP+83) = {502070.2594403957, 126337.75876, 0};
Point(IP+84) = {502330.6571694078, 125578.73852, 0};
Point(IP+85) = {501971, 124526, 0};
Point(IP+86) = {501591.6926769997, 124273.70372, 0};
Point(IP+87) = {500799.3736234487, 122962.66876, 0};
Point(IP+88) = {500938.4553456507, 122401.6538, 0};
Point(IP+89) = {500622.7078874214, 120379.59988, 0};
Point(IP+90) = {500897.507559616, 119671.581, 0};
Point(IP+91) = {500800.0982684067, 119095.56564, 0};
Line(IL+2) = {IP+4, IP+5, IP+6, IP+7, IP+8, IP+9, IP+10, IP+11, IP+12, IP+13, IP+14, IP+15, IP+16, IP+17, IP+18, IP+19, IP+20, IP+21, IP+22, IP+23, IP+24, IP+25, IP+26, IP+27, IP+28, IP+29, IP+30, IP+31, IP+32, IP+33, IP+34, IP+35, IP+36, IP+37, IP+38, IP+39, IP+40, IP+41, IP+42, IP+43, IP+44, IP+45, IP+46, IP+47, IP+48, IP+49, IP+50, IP+51, IP+52, IP+53, IP+54, IP+55, IP+56, IP+57, IP+58, IP+59, IP+60, IP+61, IP+62, IP+63, IP+64, IP+65, IP+66, IP+67, IP+68, IP+69, IP+70, IP+71, IP+72, IP+73, IP+74, IP+75, IP+76, IP+77, IP+78, IP+79, IP+80, IP+81, IP+82, IP+83, IP+84, IP+85, IP+86, IP+87, IP+88, IP+89, IP+90, IP+91, IP+0};
Point(IP+92) = {555935.5, 138192.7935595559, 0};
Point(IP+93) = {556859.5, 138467.0533359853, 0};
Point(IP+94) = {557674.5942301111, 138569.08492, 0};
Point(IP+95) = {558578.5, 138527.8832749474, 0};
Point(IP+96) = {559349.5, 138480.9823610403, 0};
Point(IP+97) = {559802.5, 138360.542689412, 0};
Point(IP+98) = {560156.5, 138455.5949958761, 0};
Point(IP+99) = {560433.6843606785, 138650.08708, 0};
Point(IP+100) = {560493.7285625821, 139103.09916, 0};
Point(IP+101) = {560941.0309782121, 139754.11652, 0};
Line(IL+3) = {IP+3, IP+92, IP+93, IP+94, IP+95, IP+96, IP+97, IP+98, IP+99, IP+100, IP+101, IP+4};
Point(IP+102) = {502136.5, 118619.2562239416, 0};
Point(IP+103) = {502480.559764766, 118939.56148, 0};
Point(IP+104) = {503679.5659704164, 120916.6142, 0};
Point(IP+105) = {503916.2594996418, 121666.6342, 0};
Point(IP+106) = {503782.1063482214, 122275.65044, 0};
Point(IP+107) = {503905.4668479561, 123139.67348, 0};
Point(IP+108) = {504289.6453651029, 124219.70228, 0};
Point(IP+109) = {504545.5, 124458.262945511, 0};
Point(IP+110) = {505262.5, 124552.7650758325, 0};
Point(IP+111) = {506693.5, 126723.5905691578, 0};
Point(IP+112) = {507254.3026812488, 127093.77892, 0};
Point(IP+113) = {507835.0014349464, 128161.8074, 0};
Point(IP+114) = {507874, 128817, 0};
Point(IP+115) = {508286.5, 129028.2078276522, 0};
Point(IP+116) = {508667.1877571896, 129601.8458, 0};
Point(IP+117) = {509050.1745864075, 130543.87092, 0};
Point(IP+118) = {508951.4588915998, 131002.88316, 0};
Point(IP+119) = {510172.9033612873, 132586.9254, 0};
Point(IP+120) = {510543.8159250644, 133309.94468, 0};
Point(IP+121) = {510562.8772428508, 133822.95836, 0};
Point(IP+122) = {512711.5, 135651.96567542, 0};
Point(IP+123) = {514079.5, 135976.0585436343, 0};
Point(IP+124) = {514706.5, 135970.9222949459, 0};
Point(IP+125) = {515747.5, 136040.714418767, 0};
Point(IP+126) = {516313.6936961461, 135704.00852, 0};
Point(IP+127) = {516412.5658587827, 134785.98404, 0};
Point(IP+128) = {517106.5, 133553.4176683831, 0};
Point(IP+129) = {518527.4932851947, 132811.9314, 0};
Point(IP+130) = {519317.0774479834, 132771.3581806064, 0};
Point(IP+131) = {521000.5, 134746.5839070029, 0};
Point(IP+132) = {522515.5, 134830.1005204557, 0};
Point(IP+133) = {526016.5, 136449.476389723, 0};
Point(IP+134) = {526356.4262802062, 137006.3269886872, 0};
Point(IP+135) = {526480.3995562256, 137756.2285956327, 0};
Point(IP+136) = {526484.5654370489, 138288.2671803328, 0};
Point(IP+137) = {527234.5534081797, 139008.7688633418, 0};
Point(IP+138) = {528794.5283881315, 139698.9839917929, 0};
Point(IP+139) = {529194.5219727346, 139674.7394160774, 0};
Point(IP+140) = {530111.053294675, 139196.0396809682, 0};
Point(IP+141) = {531284.5, 138535.7807651279, 0};
Point(IP+142) = {534599.5, 139350.1495964119, 0};
Point(IP+143) = {535568.5, 139317.0659674247, 0};
Point(IP+144) = {538319.5, 139730.1154572389, 0};
Point(IP+145) = {540725.5, 139566.7530441316, 0};
Point(IP+146) = {541504.3245388933, 139847.2378556847, 0};
Point(IP+147) = {543004.3004811548, 139936.5656136658, 0};
Point(IP+148) = {545054.2676022454, 139849.4696789926, 0};
Point(IP+149) = {546234.2486768244, 139518.3283951639, 0};
Point(IP+150) = {547584.2270248596, 139266.9631297488, 0};
Point(IP+151) = {548894.2060144347, 138695.3409108207, 0};
Point(IP+152) = {550011.3350280309, 138246.1643121705, 0};
Point(IP+153) = {551234.1684843624, 138291.2064713029, 0};
Point(IP+154) = {552024.1558139535, 137836.8014466642, 0};
Point(IP+155) = {552984.1404170007, 137412.095527387, 0};
Point(IP+156) = {554384.1179631115, 137613.4237937127, 0};
Point(IP+157) = {555068.5, 137374.5714055055, 0};
Point(IP+158) = {555344.5, 137467.0229393724, 0};
Point(IP+159) = {555498.9073414169, 138008.06996, 0};
Line(IL+4) = {IP+1, IP+102, IP+103, IP+104, IP+105, IP+106, IP+107, IP+108, IP+109, IP+110, IP+111, IP+112, IP+113, IP+114, IP+115, IP+116, IP+117, IP+118, IP+119, IP+120, IP+121, IP+122, IP+123, IP+124, IP+125, IP+126, IP+127, IP+128, IP+129, IP+130, IP+131, IP+132, IP+133, IP+134, IP+135, IP+136, IP+137, IP+138, IP+139, IP+140, IP+141, IP+142, IP+143, IP+144, IP+145, IP+146, IP+147, IP+148, IP+149, IP+150, IP+151, IP+152, IP+153, IP+154, IP+155, IP+156, IP+157, IP+158, IP+159, IP+2};
Line Loop(ILL+0) = {IL+4, IL+1, IL+3, IL+2, IL+0};
NF = newf;
Field[NF] = Structured;
Field[NF].TextFormat = 0;
Field[NF].FileName = "/media/space/Data/Lac_Leman_mesh/mesh_2.3/lacleman.dat";
Background Field = NF;
Mesh.CharacteristicLengthExtendFromBoundary = 0;
Plane Surface(IS) = {ILL:ILL+0};
Physical Surface("Domain") = {IS};
//Physical Line("coast_n") = {IL + 2,IL + 3};
Physical Line(1001) = {IL + 2,IL + 3};
//Physical Line("coast_s") = {IL + 4};
Physical Line(1002) = {IL + 4};
//Physical Line("rhone_in") = {IL + 1};
Physical Line(1003) = {IL + 1};
//Physical Line("geneva_out") = {IL + 0};
Physical Line(1004) = {IL + 0};
